Complex_ALU_without_IP_Core/mahbod.vcd
$date
   Thu Nov 17 00:44:04 2016
$end
$version
  P.20131013
$end
$timescale
  1ps
$end
$scope module test1_complex_alu $end
$scope module uut $end
$var wire 1 ! clk $end
$var wire 1 " a_valid $end
$var wire 1 # b_valid $end
$var wire 1 $ start $end
$var wire 1 % operation [1] $end
$var wire 1 & operation [0] $end
$var wire 1 ' m1 [15] $end
$var wire 1 ( m1 [14] $end
$var wire 1 ) m1 [13] $end
$var wire 1 * m1 [12] $end
$var wire 1 + m1 [11] $end
$var wire 1 , m1 [10] $end
$var wire 1 - m1 [9] $end
$var wire 1 . m1 [8] $end
$var wire 1 / m1 [7] $end
$var wire 1 0 m1 [6] $end
$var wire 1 1 m1 [5] $end
$var wire 1 2 m1 [4] $end
$var wire 1 3 m1 [3] $end
$var wire 1 4 m1 [2] $end
$var wire 1 5 m1 [1] $end
$var wire 1 6 m1 [0] $end
$var wire 1 7 m2 [15] $end
$var wire 1 8 m2 [14] $end
$var wire 1 9 m2 [13] $end
$var wire 1 : m2 [12] $end
$var wire 1 ; m2 [11] $end
$var wire 1 < m2 [10] $end
$var wire 1 = m2 [9] $end
$var wire 1 > m2 [8] $end
$var wire 1 ? m2 [7] $end
$var wire 1 @ m2 [6] $end
$var wire 1 A m2 [5] $end
$var wire 1 B m2 [4] $end
$var wire 1 C m2 [3] $end
$var wire 1 D m2 [2] $end
$var wire 1 E m2 [1] $end
$var wire 1 F m2 [0] $end
$var wire 1 G r_valid [0] $end
$var wire 1 H r_valid [1] $end
$var wire 1 I r_valid [2] $end
$var wire 1 J r [143] $end
$var wire 1 K r [142] $end
$var wire 1 L r [141] $end
$var wire 1 M r [140] $end
$var wire 1 N r [139] $end
$var wire 1 O r [138] $end
$var wire 1 P r [137] $end
$var wire 1 Q r [136] $end
$var wire 1 R r [135] $end
$var wire 1 S r [134] $end
$var wire 1 T r [133] $end
$var wire 1 U r [132] $end
$var wire 1 V r [131] $end
$var wire 1 W r [130] $end
$var wire 1 X r [129] $end
$var wire 1 Y r [128] $end
$var wire 1 Z r [127] $end
$var wire 1 [ r [126] $end
$var wire 1 \ r [125] $end
$var wire 1 ] r [124] $end
$var wire 1 ^ r [123] $end
$var wire 1 _ r [122] $end
$var wire 1 ` r [121] $end
$var wire 1 a r [120] $end
$var wire 1 b r [119] $end
$var wire 1 c r [118] $end
$var wire 1 d r [117] $end
$var wire 1 e r [116] $end
$var wire 1 f r [115] $end
$var wire 1 g r [114] $end
$var wire 1 h r [113] $end
$var wire 1 i r [112] $end
$var wire 1 j r [111] $end
$var wire 1 k r [110] $end
$var wire 1 l r [109] $end
$var wire 1 m r [108] $end
$var wire 1 n r [107] $end
$var wire 1 o r [106] $end
$var wire 1 p r [105] $end
$var wire 1 q r [104] $end
$var wire 1 r r [103] $end
$var wire 1 s r [102] $end
$var wire 1 t r [101] $end
$var wire 1 u r [100] $end
$var wire 1 v r [99] $end
$var wire 1 w r [98] $end
$var wire 1 x r [97] $end
$var wire 1 y r [96] $end
$var wire 1 z r [95] $end
$var wire 1 { r [94] $end
$var wire 1 | r [93] $end
$var wire 1 } r [92] $end
$var wire 1 ~ r [91] $end
$var wire 1 !! r [90] $end
$var wire 1 "! r [89] $end
$var wire 1 #! r [88] $end
$var wire 1 $! r [87] $end
$var wire 1 %! r [86] $end
$var wire 1 &! r [85] $end
$var wire 1 '! r [84] $end
$var wire 1 (! r [83] $end
$var wire 1 )! r [82] $end
$var wire 1 *! r [81] $end
$var wire 1 +! r [80] $end
$var wire 1 ,! r [79] $end
$var wire 1 -! r [78] $end
$var wire 1 .! r [77] $end
$var wire 1 /! r [76] $end
$var wire 1 0! r [75] $end
$var wire 1 1! r [74] $end
$var wire 1 2! r [73] $end
$var wire 1 3! r [72] $end
$var wire 1 4! r [71] $end
$var wire 1 5! r [70] $end
$var wire 1 6! r [69] $end
$var wire 1 7! r [68] $end
$var wire 1 8! r [67] $end
$var wire 1 9! r [66] $end
$var wire 1 :! r [65] $end
$var wire 1 ;! r [64] $end
$var wire 1 <! r [63] $end
$var wire 1 =! r [62] $end
$var wire 1 >! r [61] $end
$var wire 1 ?! r [60] $end
$var wire 1 @! r [59] $end
$var wire 1 A! r [58] $end
$var wire 1 B! r [57] $end
$var wire 1 C! r [56] $end
$var wire 1 D! r [55] $end
$var wire 1 E! r [54] $end
$var wire 1 F! r [53] $end
$var wire 1 G! r [52] $end
$var wire 1 H! r [51] $end
$var wire 1 I! r [50] $end
$var wire 1 J! r [49] $end
$var wire 1 K! r [48] $end
$var wire 1 L! r [47] $end
$var wire 1 M! r [46] $end
$var wire 1 N! r [45] $end
$var wire 1 O! r [44] $end
$var wire 1 P! r [43] $end
$var wire 1 Q! r [42] $end
$var wire 1 R! r [41] $end
$var wire 1 S! r [40] $end
$var wire 1 T! r [39] $end
$var wire 1 U! r [38] $end
$var wire 1 V! r [37] $end
$var wire 1 W! r [36] $end
$var wire 1 X! r [35] $end
$var wire 1 Y! r [34] $end
$var wire 1 Z! r [33] $end
$var wire 1 [! r [32] $end
$var wire 1 \! r [31] $end
$var wire 1 ]! r [30] $end
$var wire 1 ^! r [29] $end
$var wire 1 _! r [28] $end
$var wire 1 `! r [27] $end
$var wire 1 a! r [26] $end
$var wire 1 b! r [25] $end
$var wire 1 c! r [24] $end
$var wire 1 d! r [23] $end
$var wire 1 e! r [22] $end
$var wire 1 f! r [21] $end
$var wire 1 g! r [20] $end
$var wire 1 h! r [19] $end
$var wire 1 i! r [18] $end
$var wire 1 j! r [17] $end
$var wire 1 k! r [16] $end
$var wire 1 l! r [15] $end
$var wire 1 m! r [14] $end
$var wire 1 n! r [13] $end
$var wire 1 o! r [12] $end
$var wire 1 p! r [11] $end
$var wire 1 q! r [10] $end
$var wire 1 r! r [9] $end
$var wire 1 s! r [8] $end
$var wire 1 t! r [7] $end
$var wire 1 u! r [6] $end
$var wire 1 v! r [5] $end
$var wire 1 w! r [4] $end
$var wire 1 x! r [3] $end
$var wire 1 y! r [2] $end
$var wire 1 z! r [1] $end
$var wire 1 {! r [0] $end
$var reg 1 |! valid $end
$var reg 1 }! error $end
$var reg 48 ~! result [47:0] $end
$var reg 144 !" a [15:0] $end
$var reg 144 "" b [15:0] $end
$var reg 432 #" res [47:0] $end
$var reg 2 $" received [1:0] $end
$var reg 2 %" op [1:0] $end
$var reg 48 &" d1 [15:0] $end
$var reg 48 '" d2 [15:0] $end
$var integer 32 (" i $end
$var integer 32 )" k $end
$var integer 32 *" j $end
$var reg 1 +" total_r_valid $end
$var reg 48 ," sum_d [47:0] $end
$var reg 1 -" last_rd $end
$var reg 1 ." v1 $end
$var reg 1 /" v2 $end
$var integer 32 0" jj $end
$upscope $end
$upscope $end
$enddefinitions $end
#0
$dumpvars
0E
0D
0C
0B
0A
0@
0?
0>
0=
0<
0;
0:
09
08
07
xW!
xV!
xU!
xT!
xS!
xR!
xQ!
xP!
xO!
xN!
xM!
xL!
xK!
xJ!
xI!
xH!
xG!
xF!
xE!
xD!
xC!
xB!
xA!
x@!
x?!
x>!
x=!
x<!
x;!
x:!
x9!
x8!
x7!
x6!
x5!
x4!
x|!
0}!
bx ~!
bx !"
bx ""
bx #"
b0 $"
bx %"
bx &"
bx '"
b0 ("
b0 )"
b0 *"
0+"
bx ,"
0-"
x."
x/"
bx 0"
xI
xH
xG
x{!
xz!
xy!
xx!
xw!
xv!
xu!
xt!
xs!
xr!
xq!
xp!
xo!
xn!
xm!
xl!
xk!
xj!
xi!
xh!
xg!
xf!
xe!
xd!
xc!
xb!
xa!
x`!
x_!
x^!
x]!
x\!
x[!
xZ!
xY!
xX!
x3!
x2!
x1!
x0!
x/!
x.!
x-!
x,!
x+!
x*!
x)!
x(!
x'!
x&!
x%!
x$!
x#!
x"!
x!!
x~
x}
x|
x{
xz
xy
xx
xw
xv
xu
xt
xs
xr
xq
xp
xo
xn
xm
xl
xk
xj
xi
xh
xg
xf
xe
xd
xc
xb
xa
x`
x_
x^
x]
x\
x[
xZ
xY
xX
xW
xV
xU
xT
xS
xR
xQ
xP
xO
xN
xM
xL
xK
xJ
0!
0"
0#
0$
0&
0%
06
05
04
03
02
01
00
0/
0.
0-
0,
0+
0*
0)
0(
0'
0F
$end
#10000
0|!
b1000000001000000011000000010000010000000010000000010000001100000010000000100000011100000110000000100000011100000111000000100000000100000000 !"
b1000000011100000100000000010000001000000011000000010000001000000111000000010000001000000010000000110000001000000010000000110000000000000001 ""
b1 $"
b0 %"
1!
1"
1#
1$
#20000
0!
#30000
1|!
b1000000000000000000000001001000000000000000000000111000000000000000000000010000000000000000000000110000000000000000000000101000000000000000000000010000000000000000000000101000000000000000000001001000000000000000000000011000000000000000000001001000000000000000000001000000000000000000000000101000000000000000000001001000000000000000000001001000000000000000000000101000000000000000000000001000000000000000000000001 #"
b0 $"
b11 ("
b11 *"
1!
#40000
0!
#50000
0|!
b1 $"
b0 ("
b0 *"
1!
#60000
0!
#70000
1|!
b0 $"
b11 ("
b11 *"
1!
#80000
0!
#90000
0|!
b1 $"
b0 ("
b0 *"
1!
#100000
0!
#110000
1|!
b0 $"
b11 ("
b11 *"
1!
1&
#120000
0!
#130000
0|!
b1 $"
b1 %"
b0 ("
b0 *"
1!
#140000
0!
#150000
1|!
b111111111111111111111011111111111111111111111111000000000000000000000000000000000000000000000010111111111111111111111111000000000000000000000000000000000000000000000001111111111111111111111011000000000000000000000001000000000000000000000101000000000000000000000100111111111111111111111111000000000000000000000101000000000000000000000101111111111111111111111111000000000000000000000001111111111111111111111111 #"
b0 $"
b11 ("
b11 *"
1!
#160000
0!
#170000
0|!
b1 $"
b0 ("
b0 *"
1!
#180000
0!
#190000
1|!
b0 $"
b11 ("
b11 *"
1!
#200000
0!
#210000
0|!
b1 $"
b10 %"
b0 ("
b0 *"
1!
0&
1%
#220000
0!
#230000
0W!
0V!
0U!
0T!
0S!
0R!
0Q!
0P!
0O!
0N!
0M!
0L!
1K!
1J!
1I!
1H!
1G!
1F!
1E!
1D!
1C!
1B!
1A!
1@!
1?!
1>!
1=!
1<!
1;!
1:!
19!
18!
17!
16!
15!
14!
b1000000001000000011000000010000010000000010 &"
b1000000011100000001000000100000001100000010 '"
x+"
b0 ,"
1."
1/"
b11 0"
1I
1H
1G
0{!
0z!
0y!
1x!
1w!
1v!
1u!
1t!
1s!
1r!
1q!
1p!
1o!
1n!
1m!
1l!
1k!
1j!
1i!
1h!
1g!
1f!
1e!
1d!
0c!
1b!
1a!
1`!
0_!
0^!
0]!
0\!
0[!
0Z!
0Y!
0X!
13!
12!
11!
00!
0/!
0.!
0-!
0,!
0+!
0*!
0)!
0(!
0'!
0&!
0%!
0$!
0#!
0"!
0!!
0~
0}
0|
0{
0z
0y
1x
1w
1v
1u
1t
1s
1r
1q
1p
1o
1n
1m
1l
1k
1j
1i
1h
1g
1f
1e
1d
1c
1b
0a
0`
1_
0^
0]
1\
0[
0Z
0Y
0X
0W
0V
0U
0T
0S
0R
0Q
0P
0O
0N
0M
0L
0K
0J
1!
#240000
0!
#250000
b111001111111111111111111110101111111111111111111111111000000000000000000000000000000000000000000000010111111111111111111111111000000000000000000000000000000000000000000000001111111111111111111111011000000000000000000000001000000000000000000000101000000000000000000000100111111111111111111111111000000000000000000000101000000000000000000000101111111111111111111111111000000000000000000000001111111111111111111111111 #"
b1 *"
1+"
b111001111111111111111111110101 ,"
0."
0/"
b11 0"
0I
0H
0G
1!
#260000
0!
#270000
0+"
b0 ,"
b11 0"
1!
#280000
0!
#290000
0K!
0J!
0G!
b1000000000100000111000000010000001000000011 '"
0+"
1."
1/"
b11 0"
1I
1H
1G
1z!
1y!
0b!
0a!
0`!
1_!
03!
01!
10!
0w
0v
1^
0\
1!
#300000
0!
#310000
b111001111111111111111111110101000000000000000000100110111111111111111111011100000000000000000000000010111111111111111111111111000000000000000000000000000000000000000000000001111111111111111111111011000000000000000000000001000000000000000000000101000000000000000000000100111111111111111111111111000000000000000000000101000000000000000000000101111111111111111111111111000000000000000000000001111111111111111111111111 #"
b10 *"
1+"
b100110111111111111111111011100 ,"
0."
0/"
b11 0"
0I
0H
0G
1!
#320000
0!
#330000
0+"
b0 ,"
b11 0"
1!
#340000
0!
#350000
1G!
b100000001100000010000000100000000000000001 '"
0+"
1."
1/"
b11 0"
1I
1H
1G
0y!
0x!
0w!
0v!
0u!
0t!
0s!
0r!
0q!
0p!
0o!
0n!
0m!
0l!
0k!
0j!
0i!
0h!
0g!
0f!
0e!
0d!
1a!
0_!
02!
1w
1v
0_
0^
1]
1!
#360000
0!
#370000
b111001111111111111111111110101000000000000000000100110111111111111111111011100000000000000000000011100111111111111111111111100000000000000000000000000000000000000000000000001111111111111111111111011000000000000000000000001000000000000000000000101000000000000000000000100111111111111111111111111000000000000000000000101000000000000000000000101111111111111111111111111000000000000000000000001111111111111111111111111 #"
b1 ("
b0 *"
1+"
b11100111111111111111111111100 ,"
0."
0/"
b11 0"
0I
0H
0G
1!
#380000
0!
#390000
0+"
b0 ,"
b11 0"
1!
#400000
0!
#410000
1J!
0I!
0H!
0G!
0F!
0E!
0D!
0C!
0B!
0A!
0@!
0?!
0>!
0=!
0<!
0;!
0:!
09!
08!
07!
06!
05!
04!
b10000001100000010000000100000011100000110 &"
b1000000011100000001000000100000001100000010 '"
0+"
1."
1/"
b11 0"
1I
1H
1G
1{!
1y!
1w!
1v!
1u!
1t!
1s!
1r!
1q!
1p!
1o!
1n!
1m!
1l!
1k!
1j!
1i!
1h!
1g!
1f!
1e!
1d!
0a!
1^!
12!
11!
00!
1y
0x
0w
0v
0t
0s
0r
0q
0p
0o
0n
0m
0l
0k
0j
0i
0h
0g
0f
0e
0d
0c
0b
1a
1`
1!
#420000
0!
#430000
b111001111111111111111111110101000000000000000000100110111111111111111111011100000000000000000000011100111111111111111111111100000000000000000000111001000000000000000000001010111111111111111111111011000000000000000000000001000000000000000000000101000000000000000000000100111111111111111111111111000000000000000000000101000000000000000000000101111111111111111111111111000000000000000000000001111111111111111111111111 #"
b1 *"
1+"
b111001000000000000000000001010 ,"
0."
0/"
b11 0"
0I
0H
0G
1!
#440000
0!
#450000
0+"
b0 ,"
b11 0"
1!
#460000
0!
#470000
0J!
1I!
1G!
1F!
1E!
1D!
1C!
1B!
1A!
1@!
1?!
1>!
1=!
1<!
1;!
1:!
19!
18!
17!
16!
15!
14!
b1000000000100000111000000010000001000000011 '"
0+"
1."
1/"
b11 0"
1I
1H
1G
0{!
0z!
0w!
0v!
0u!
0t!
0s!
0r!
0q!
0p!
0o!
0n!
0m!
0l!
0k!
0j!
0i!
0h!
0g!
0f!
0e!
0d!
1c!
02!
01!
1/!
1x
1w
1v
1t
1s
1r
1q
1p
1o
1n
1m
1l
1k
1j
1i
1h
1g
1f
1e
1d
1c
1b
0`
1_
1^
0]
1!
#480000
0!
#490000
b111001111111111111111111110101000000000000000000100110111111111111111111011100000000000000000000011100111111111111111111111100000000000000000000111001000000000000000000001010000000000000000000111110111111111111111111110111000000000000000000000101000000000000000000000100111111111111111111111111000000000000000000000101000000000000000000000101111111111111111111111111000000000000000000000001111111111111111111111111 #"
b10 *"
1+"
b111110111111111111111111110111 ,"
0."
0/"
b11 0"
0I
0H
0G
1!
#500000
0!
#510000
0+"
b0 ,"
b11 0"
1!
#520000
0!
#530000
0I!
0G!
0F!
0E!
0D!
0C!
0B!
0A!
0@!
0?!
0>!
0=!
0<!
0;!
0:!
09!
08!
07!
06!
05!
04!
b100000001100000010000000100000000000000001 '"
0+"
1."
1/"
b11 0"
1I
1H
1G
1z!
1b!
1a!
0^!
10!
0/!
0v
0u
0t
0s
0r
0q
0p
0o
0n
0m
0l
0k
0j
0i
0h
0g
0f
0e
0d
0c
0b
0_
1!
#540000
0!
#550000
b111001111111111111111111110101000000000000000000100110111111111111111111011100000000000000000000011100111111111111111111111100000000000000000000111001000000000000000000001010000000000000000000111110111111111111111111110111000000000000000000011000000000000000000000001101111111111111111111111111000000000000000000000101000000000000000000000101111111111111111111111111000000000000000000000001111111111111111111111111 #"
b10 ("
b0 *"
1+"
b11000000000000000000000001101 ,"
0."
0/"
b11 0"
0I
0H
0G
1!
#560000
0!
#570000
0+"
b0 ,"
b11 0"
1!
#580000
0!
#590000
1K!
1I!
1H!
1G!
1F!
1E!
1D!
1C!
1B!
1A!
1@!
1?!
1>!
1=!
1<!
1;!
1:!
19!
18!
17!
16!
15!
14!
b100000011100000111000000100000000100000000 &"
b1000000011100000001000000100000001100000010 '"
0+"
1."
1/"
b11 0"
1I
1H
1G
1{!
0z!
1x!
1w!
1v!
1u!
1t!
1s!
1r!
1q!
1p!
1o!
1n!
1m!
1l!
1k!
1j!
1i!
1h!
1g!
1f!
1e!
1d!
0c!
0a!
00!
1/!
0x
0w
1v
1t
0a
1`
1\
1!
#600000
0!
#610000
b111001111111111111111111110101000000000000000000100110111111111111111111011100000000000000000000011100111111111111111111111100000000000000000000111001000000000000000000001010000000000000000000111110111111111111111111110111000000000000000000011000000000000000000000001101000000000000000000111100000000000000000000100011000000000000000000000101111111111111111111111111000000000000000000000001111111111111111111111111 #"
b1 *"
1+"
b111100000000000000000000100011 ,"
0."
0/"
b11 0"
0I
0H
0G
1!
#620000
0!
#630000
0+"
b0 ,"
b11 0"
1!
#640000
0!
#650000
0I!
0H!
0F!
b1000000000100000111000000010000001000000011 '"
0+"
1."
1/"
b11 0"
1I
1H
1G
0{!
1z!
1c!
13!
11!
1x
1w
1u
1s
1r
1q
1p
1o
1n
1m
1l
1k
1j
1i
1h
1g
1f
1e
1d
1c
1b
1_
1]
0\
1!
#660000
0!
#670000
b111001111111111111111111110101000000000000000000100110111111111111111111011100000000000000000000011100111111111111111111111100000000000000000000111001000000000000000000001010000000000000000000111110111111111111111111110111000000000000000000011000000000000000000000001101000000000000000000111100000000000000000000100011000000000000000000110110111111111111111111001110000000000000000000000001111111111111111111111111 #"
b10 *"
1+"
b110110111111111111111111001110 ,"
0."
0/"
b11 0"
0I
0H
0G
1!
#680000
0!
#690000
0+"
b0 ,"
b11 0"
1!
#700000
0!
#710000
0K!
1J!
1I!
1F!
b100000001100000010000000100000000000000001 '"
0+"
1."
1/"
b11 0"
1I
1H
1G
0z!
0y!
0x!
0w!
0v!
0u!
0t!
0s!
0r!
0q!
0p!
0o!
0n!
0m!
0l!
0k!
0j!
0i!
0h!
0g!
0f!
0e!
0d!
0b!
03!
12!
01!
0x
0w
0v
0t
0s
0r
0q
0p
0o
0n
0m
0l
0k
0j
0i
0h
0g
0f
0e
0d
0c
0b
0`
0^
1!
#720000
0!
#730000
1|!
b111001111111111111111111110101000000000000000000100110111111111111111111011100000000000000000000011100111111111111111111111100000000000000000000111001000000000000000000001010000000000000000000111110111111111111111111110111000000000000000000011000000000000000000000001101000000000000000000111100000000000000000000100011000000000000000000110110111111111111111111001110000000000000000000100111000000000000000000000111 #"
b0 $"
1+"
b100111000000000000000000000111 ,"
0."
0/"
b11 0"
0I
0H
0G
1!
#740000
0!
#750000
0|!
b1 $"
b0 ("
b0 *"
0+"
1!
#760000
0!
#770000
1K!
1H!
b1000000001000000011000000010000010000000010 &"
b1000000011100000001000000100000001100000010 '"
0+"
b0 ,"
1."
1/"
b11 0"
1I
1H
1G
1x!
1w!
1v!
1u!
1t!
1s!
1r!
1q!
1p!
1o!
1n!
1m!
1l!
1k!
1j!
1i!
1h!
1g!
1f!
1e!
1d!
0c!
1b!
1a!
1`!
13!
11!
0/!
0y
1x
1w
1v
1t
1s
1r
1q
1p
1o
1n
1m
1l
1k
1j
1i
1h
1g
1f
1e
1d
1c
1b
0]
1\
1!
#780000
0!
#790000
b1 *"
1+"
b111001111111111111111111110101 ,"
0."
0/"
b11 0"
0I
0H
0G
1!
#800000
0!
#810000
0+"
b0 ,"
b11 0"
1!
#820000
0!
#830000
0K!
0J!
0G!
b1000000000100000111000000010000001000000011 '"
0+"
1."
1/"
b11 0"
1I
1H
1G
1z!
1y!
0b!
0a!
0`!
1_!
03!
01!
10!
0w
0v
1^
0\
1!
#840000
0!
#850000
b10 *"
1+"
b100110111111111111111111011100 ,"
0."
0/"
b11 0"
0I
0H
0G
1!
#860000
0!
#870000
0+"
b0 ,"
b11 0"
1!
#880000
0!
#890000
1G!
b100000001100000010000000100000000000000001 '"
0+"
1."
1/"
b11 0"
1I
1H
1G
0y!
0x!
0w!
0v!
0u!
0t!
0s!
0r!
0q!
0p!
0o!
0n!
0m!
0l!
0k!
0j!
0i!
0h!
0g!
0f!
0e!
0d!
1a!
0_!
02!
1w
1v
0_
0^
1]
1!
#900000
0!
#910000
b1 ("
b0 *"
1+"
b11100111111111111111111111100 ,"
0."
0/"
b11 0"
0I
0H
0G
1!
#920000
0!
#930000
0+"
b0 ,"
b11 0"
1!
#940000
0!
#950000
1J!
0I!
0H!
0G!
0F!
0E!
0D!
0C!
0B!
0A!
0@!
0?!
0>!
0=!
0<!
0;!
0:!
09!
08!
07!
06!
05!
04!
b10000001100000010000000100000011100000110 &"
b1000000011100000001000000100000001100000010 '"
0+"
1."
1/"
b11 0"
1I
1H
1G
1{!
1y!
1w!
1v!
1u!
1t!
1s!
1r!
1q!
1p!
1o!
1n!
1m!
1l!
1k!
1j!
1i!
1h!
1g!
1f!
1e!
1d!
0a!
1^!
12!
11!
00!
1y
0x
0w
0v
0t
0s
0r
0q
0p
0o
0n
0m
0l
0k
0j
0i
0h
0g
0f
0e
0d
0c
0b
1a
1`
1!
#960000
0!
#970000
b1 *"
1+"
b111001000000000000000000001010 ,"
0."
0/"
b11 0"
0I
0H
0G
1!
#980000
0!
#990000
0+"
b0 ,"
b11 0"
1!
